{
  "createIntlReq" : {
    "_id" : "wm-createIntlReq-wm.LiveVariable-1470055471236",
    "name" : "createIntlReq",
    "owner" : "Page",
    "category" : "wm.LiveVariable",
    "dataBinding" : [ {
      "target" : "destinationsByFrom",
      "value" : "bind:Variables.selectedFromIntlAirports.dataValue",
      "type" : "string"
    }, {
      "target" : "destinationsByTo",
      "value" : "bind:Variables.selectedToIntlAirports.dataValue",
      "type" : "string"
    }, {
      "target" : "employee",
      "value" : "bind:Variables.empObj.dataSet",
      "type" : "number"
    }, {
      "target" : "travelType",
      "value" : "bind:'Official Visit'",
      "type" : "string"
    }, {
      "target" : "class_",
      "value" : "bind:Widgets.IntlclassButton.caption",
      "type" : "string"
    }, {
      "target" : "stay",
      "value" : "bind:Widgets.IntlstayButton.caption",
      "type" : "string"
    }, {
      "target" : "status",
      "value" : "bind:'Approved'",
      "type" : "string"
    }, {
      "target" : "deptDate",
      "value" : "bind:Widgets.IntldepartureDate.datavalue",
      "type" : "date"
    }, {
      "target" : "returnDate",
      "value" : "bind:Widgets.IntlreturnDate.datavalue",
      "type" : "date"
    }, {
      "target" : "tripName",
      "value" : "bind:Widgets.IntltripName.datavalue",
      "type" : "string"
    }, {
      "target" : "visaType",
      "value" : "bind:Widgets.visaButton.caption",
      "type" : "string"
    } ],
    "operation" : "insert",
    "dataSet" : [ ],
    "type" : "Requests",
    "isList" : false,
    "saveInPhonegap" : false,
    "maxResults" : 20,
    "designMaxResults" : 10,
    "onCanUpdate" : "createIntlReqonCanUpdate($event, $scope)",
    "onBeforeUpdate" : "createIntlReqonBeforeUpdate($event, $scope)",
    "onSuccess" : "createIntlReqonSuccess($event, $scope);Variables.SuccessRequest.invoke();Variables.goToPage_MyRequests.invoke()",
    "inFlightBehavior" : "executeLast",
    "startUpdate" : false,
    "autoUpdate" : false,
    "transformationRequired" : false,
    "liveSource" : "TRAVEL_ADVISOR_DB",
    "ignoreCase" : false,
    "matchMode" : "start",
    "propertiesMap" : {
      "columns" : [ {
        "fieldName" : "destinationsByTo",
        "type" : "string",
        "fullyQualifiedType" : "string",
        "columnName" : "TO",
        "isPrimaryKey" : false,
        "notNull" : false,
        "length" : 25,
        "precision" : 19,
        "generator" : "assigned",
        "isRelated" : true,
        "relatedTableName" : "DESTINATIONS",
        "relatedEntityName" : "Destinations",
        "relatedColumnName" : "to",
        "relatedFieldName" : "destinationsByTo.airportCode",
        "isList" : false,
        "targetTable" : "DESTINATIONS",
        "scale" : 0,
        "columns" : [ {
          "fieldName" : "airportCode",
          "type" : "string",
          "fullyQualifiedType" : "string",
          "columnName" : "AIRPORT_CODE",
          "isPrimaryKey" : true,
          "notNull" : true,
          "length" : 25,
          "precision" : 19,
          "generator" : "assigned",
          "isRelated" : false,
          "scale" : 0
        }, {
          "fieldName" : "airportName",
          "type" : "string",
          "fullyQualifiedType" : "string",
          "columnName" : "AIRPORT_NAME",
          "isPrimaryKey" : false,
          "notNull" : false,
          "length" : 255,
          "precision" : 19,
          "generator" : "assigned",
          "isRelated" : false,
          "scale" : 0
        }, {
          "fieldName" : "country",
          "type" : "string",
          "fullyQualifiedType" : "string",
          "columnName" : "COUNTRY",
          "isPrimaryKey" : false,
          "notNull" : false,
          "length" : 20,
          "precision" : 19,
          "generator" : "assigned",
          "isRelated" : false,
          "scale" : 0
        }, {
          "fieldName" : "city",
          "type" : "string",
          "fullyQualifiedType" : "string",
          "columnName" : "CITY",
          "isPrimaryKey" : false,
          "notNull" : false,
          "length" : 255,
          "precision" : 19,
          "generator" : "assigned",
          "isRelated" : false,
          "defaultValue" : "",
          "scale" : 0
        } ]
      }, {
        "fieldName" : "destinationsByFrom",
        "type" : "string",
        "fullyQualifiedType" : "string",
        "columnName" : "FROM",
        "isPrimaryKey" : false,
        "notNull" : false,
        "length" : 25,
        "precision" : 19,
        "generator" : "assigned",
        "isRelated" : true,
        "relatedTableName" : "DESTINATIONS",
        "relatedEntityName" : "Destinations",
        "relatedColumnName" : "from",
        "relatedFieldName" : "destinationsByFrom.airportCode",
        "isList" : false,
        "targetTable" : "DESTINATIONS",
        "scale" : 0,
        "columns" : [ {
          "fieldName" : "airportCode",
          "type" : "string",
          "fullyQualifiedType" : "string",
          "columnName" : "AIRPORT_CODE",
          "isPrimaryKey" : true,
          "notNull" : true,
          "length" : 25,
          "precision" : 19,
          "generator" : "assigned",
          "isRelated" : false,
          "scale" : 0
        }, {
          "fieldName" : "airportName",
          "type" : "string",
          "fullyQualifiedType" : "string",
          "columnName" : "AIRPORT_NAME",
          "isPrimaryKey" : false,
          "notNull" : false,
          "length" : 255,
          "precision" : 19,
          "generator" : "assigned",
          "isRelated" : false,
          "scale" : 0
        }, {
          "fieldName" : "country",
          "type" : "string",
          "fullyQualifiedType" : "string",
          "columnName" : "COUNTRY",
          "isPrimaryKey" : false,
          "notNull" : false,
          "length" : 20,
          "precision" : 19,
          "generator" : "assigned",
          "isRelated" : false,
          "scale" : 0
        }, {
          "fieldName" : "city",
          "type" : "string",
          "fullyQualifiedType" : "string",
          "columnName" : "CITY",
          "isPrimaryKey" : false,
          "notNull" : false,
          "length" : 255,
          "precision" : 19,
          "generator" : "assigned",
          "isRelated" : false,
          "defaultValue" : "",
          "scale" : 0
        } ]
      }, {
        "fieldName" : "employee",
        "type" : "integer",
        "fullyQualifiedType" : "integer",
        "columnName" : "EMP_ID",
        "isPrimaryKey" : false,
        "notNull" : false,
        "length" : 255,
        "precision" : 10,
        "generator" : "assigned",
        "isRelated" : true,
        "relatedTableName" : "EMPLOYEE",
        "relatedEntityName" : "Employee",
        "relatedColumnName" : "empId",
        "relatedFieldName" : "employee.empId",
        "isList" : false,
        "targetTable" : "EMPLOYEE",
        "scale" : 0,
        "columns" : [ {
          "fieldName" : "employeeByManagerId",
          "type" : "integer",
          "fullyQualifiedType" : "integer",
          "columnName" : "MANAGER_ID",
          "isPrimaryKey" : false,
          "notNull" : false,
          "length" : 255,
          "precision" : 10,
          "generator" : "assigned",
          "isRelated" : true,
          "relatedColumnName" : "managerId",
          "targetTable" : "EMPLOYEE",
          "scale" : 0
        }, {
          "fieldName" : "empId",
          "type" : "integer",
          "fullyQualifiedType" : "integer",
          "columnName" : "EMP_ID",
          "isPrimaryKey" : true,
          "notNull" : true,
          "length" : 255,
          "precision" : 10,
          "generator" : "identity",
          "isRelated" : false,
          "scale" : 0
        }, {
          "fieldName" : "password",
          "type" : "string",
          "fullyQualifiedType" : "string",
          "columnName" : "PASSWORD",
          "isPrimaryKey" : false,
          "notNull" : false,
          "length" : 255,
          "precision" : 19,
          "generator" : "assigned",
          "isRelated" : false,
          "scale" : 0
        }, {
          "fieldName" : "fullName",
          "type" : "string",
          "fullyQualifiedType" : "string",
          "columnName" : "FULL_NAME",
          "isPrimaryKey" : false,
          "notNull" : false,
          "length" : 255,
          "precision" : 19,
          "generator" : "assigned",
          "isRelated" : false,
          "scale" : 0
        }, {
          "fieldName" : "picUrl",
          "type" : "string",
          "fullyQualifiedType" : "string",
          "columnName" : "PIC_URL",
          "isPrimaryKey" : false,
          "notNull" : false,
          "length" : 255,
          "precision" : 19,
          "generator" : "assigned",
          "isRelated" : false,
          "scale" : 0
        }, {
          "fieldName" : "username",
          "type" : "string",
          "fullyQualifiedType" : "string",
          "columnName" : "USERNAME",
          "isPrimaryKey" : false,
          "notNull" : false,
          "length" : 255,
          "precision" : 19,
          "generator" : "assigned",
          "isRelated" : false,
          "scale" : 0
        } ]
      }, {
        "fieldName" : "requestId",
        "type" : "integer",
        "fullyQualifiedType" : "integer",
        "columnName" : "REQUEST_ID",
        "isPrimaryKey" : true,
        "notNull" : true,
        "length" : 255,
        "precision" : 10,
        "generator" : "identity",
        "isRelated" : false,
        "scale" : 0
      }, {
        "fieldName" : "travelType",
        "type" : "string",
        "fullyQualifiedType" : "string",
        "columnName" : "TRAVEL_TYPE",
        "isPrimaryKey" : false,
        "notNull" : false,
        "length" : 255,
        "precision" : 19,
        "generator" : "assigned",
        "isRelated" : false,
        "scale" : 0
      }, {
        "fieldName" : "class_",
        "type" : "string",
        "fullyQualifiedType" : "string",
        "columnName" : "CLASS",
        "isPrimaryKey" : false,
        "notNull" : false,
        "length" : 255,
        "precision" : 19,
        "generator" : "assigned",
        "isRelated" : false,
        "scale" : 0
      }, {
        "fieldName" : "stay",
        "type" : "string",
        "fullyQualifiedType" : "string",
        "columnName" : "STAY",
        "isPrimaryKey" : false,
        "notNull" : false,
        "length" : 255,
        "precision" : 19,
        "generator" : "assigned",
        "isRelated" : false,
        "scale" : 0
      }, {
        "fieldName" : "status",
        "type" : "string",
        "fullyQualifiedType" : "string",
        "columnName" : "STATUS",
        "isPrimaryKey" : false,
        "notNull" : false,
        "length" : 255,
        "precision" : 19,
        "generator" : "assigned",
        "isRelated" : false,
        "scale" : 0
      }, {
        "fieldName" : "deptDate",
        "type" : "date",
        "fullyQualifiedType" : "date",
        "columnName" : "DEPT_DATE",
        "isPrimaryKey" : false,
        "notNull" : false,
        "length" : 10,
        "precision" : 19,
        "generator" : "assigned",
        "isRelated" : false,
        "scale" : 0
      }, {
        "fieldName" : "returnDate",
        "type" : "date",
        "fullyQualifiedType" : "date",
        "columnName" : "RETURN_DATE",
        "isPrimaryKey" : false,
        "notNull" : false,
        "length" : 10,
        "precision" : 19,
        "generator" : "assigned",
        "isRelated" : false,
        "scale" : 0
      }, {
        "fieldName" : "visaType",
        "type" : "string",
        "fullyQualifiedType" : "string",
        "columnName" : "VISA_TYPE",
        "isPrimaryKey" : false,
        "notNull" : false,
        "length" : 255,
        "precision" : 19,
        "generator" : "assigned",
        "isRelated" : false,
        "scale" : 0
      }, {
        "fieldName" : "description",
        "type" : "string",
        "fullyQualifiedType" : "string",
        "columnName" : "DESCRIPTION",
        "isPrimaryKey" : false,
        "notNull" : false,
        "length" : 25,
        "precision" : 19,
        "generator" : "assigned",
        "isRelated" : false,
        "defaultValue" : "",
        "scale" : 0
      }, {
        "fieldName" : "createdDate",
        "type" : "date",
        "fullyQualifiedType" : "date",
        "columnName" : "CREATED_DATE",
        "isPrimaryKey" : false,
        "notNull" : false,
        "length" : 10,
        "precision" : 19,
        "generator" : "assigned",
        "isRelated" : false,
        "systemInserted" : true,
        "systemUpdated" : true,
        "scale" : 0
      }, {
        "fieldName" : "tripName",
        "type" : "string",
        "fullyQualifiedType" : "string",
        "columnName" : "TRIP_NAME",
        "isPrimaryKey" : false,
        "notNull" : false,
        "length" : 255,
        "precision" : 19,
        "generator" : "assigned",
        "isRelated" : false,
        "defaultValue" : "",
        "scale" : 0
      } ],
      "entityName" : "Requests",
      "fullyQualifiedName" : "com.travel_advisor.travel_advisor_db.Requests",
      "tableType" : "TABLE",
      "primaryFields" : [ "requestId" ]
    },
    "spinnerContext" : "page",
    "tableName" : "REQUESTS",
    "tableType" : "TABLE",
    "properties" : [ "destinationsByTo", "destinationsByFrom", "employee" ],
    "relatedTables" : [ {
      "columnName" : "destinationsByTo",
      "relationName" : "destinationsByTo",
      "type" : "Destinations",
      "watchOn" : "TRAVEL_ADVISOR_DBDestinationsData",
      "package" : "com.travel_advisor.travel_advisor_db.Requests"
    }, {
      "columnName" : "destinationsByFrom",
      "relationName" : "destinationsByFrom",
      "type" : "Destinations",
      "watchOn" : "TRAVEL_ADVISOR_DBDestinationsData",
      "package" : "com.travel_advisor.travel_advisor_db.Requests"
    }, {
      "columnName" : "employee",
      "relationName" : "employee",
      "type" : "Employee",
      "watchOn" : "TRAVEL_ADVISOR_DBEmployeeData",
      "package" : "com.travel_advisor.travel_advisor_db.Requests"
    } ],
    "filterFields" : { },
    "inputFields" : { },
    "package" : "com.travel_advisor.travel_advisor_db.Requests"
  },
  "createRequest" : {
    "_id" : "wm-createRequest-wm.LiveVariable-1468910732215",
    "name" : "createRequest",
    "owner" : "Page",
    "category" : "wm.LiveVariable",
    "dataBinding" : [ {
      "target" : "destinationsByFrom",
      "value" : "bind:Variables.selectedFromAirport.dataValue",
      "type" : "string"
    }, {
      "target" : "destinationsByTo",
      "value" : "bind:Variables.selectedToAirport.dataValue",
      "type" : "string"
    }, {
      "target" : "employee",
      "value" : "bind:Variables.empObj.dataSet",
      "type" : "number"
    }, {
      "target" : "travelType",
      "value" : "bind:'Official Visit'",
      "type" : "string"
    }, {
      "target" : "class_",
      "value" : "bind:Widgets.classButton.caption",
      "type" : "string"
    }, {
      "target" : "stay",
      "value" : "bind:Widgets.stayButton.caption",
      "type" : "string"
    }, {
      "target" : "status",
      "value" : "bind:'Approved'",
      "type" : "string"
    }, {
      "target" : "deptDate",
      "value" : "bind:Widgets.departureDate.datavalue",
      "type" : "date"
    }, {
      "target" : "returnDate",
      "value" : "bind:Widgets.returnDate.datavalue",
      "type" : "date"
    }, {
      "target" : "tripName",
      "value" : "bind:Widgets.tripName.datavalue",
      "type" : "string"
    }, {
      "target" : "visaType",
      "value" : "null",
      "type" : "string"
    } ],
    "operation" : "insert",
    "dataSet" : [ ],
    "type" : "Requests",
    "isList" : false,
    "saveInPhonegap" : false,
    "maxResults" : 20,
    "designMaxResults" : 10,
    "onBeforeUpdate" : "createRequestonBeforeUpdate($event, $scope)",
    "onSuccess" : "createRequestonSuccess($event, $scope);Variables.SuccessRequest.invoke();Variables.goToPage_MyRequests.invoke()",
    "inFlightBehavior" : "executeLast",
    "startUpdate" : false,
    "autoUpdate" : false,
    "transformationRequired" : false,
    "liveSource" : "TRAVEL_ADVISOR_DB",
    "ignoreCase" : false,
    "matchMode" : "start",
    "propertiesMap" : {
      "columns" : [ {
        "fieldName" : "destinationsByTo",
        "type" : "string",
        "fullyQualifiedType" : "string",
        "columnName" : "TO",
        "isPrimaryKey" : false,
        "notNull" : false,
        "length" : 25,
        "precision" : 19,
        "generator" : "assigned",
        "isRelated" : true,
        "relatedTableName" : "DESTINATIONS",
        "relatedEntityName" : "Destinations",
        "relatedColumnName" : "to",
        "relatedFieldName" : "destinationsByTo.airportCode",
        "isList" : false,
        "targetTable" : "DESTINATIONS",
        "scale" : 0,
        "columns" : [ {
          "fieldName" : "airportCode",
          "type" : "string",
          "fullyQualifiedType" : "string",
          "columnName" : "AIRPORT_CODE",
          "isPrimaryKey" : true,
          "notNull" : true,
          "length" : 25,
          "precision" : 19,
          "generator" : "assigned",
          "isRelated" : false,
          "scale" : 0
        }, {
          "fieldName" : "airportName",
          "type" : "string",
          "fullyQualifiedType" : "string",
          "columnName" : "AIRPORT_NAME",
          "isPrimaryKey" : false,
          "notNull" : false,
          "length" : 255,
          "precision" : 19,
          "generator" : "assigned",
          "isRelated" : false,
          "scale" : 0
        }, {
          "fieldName" : "country",
          "type" : "string",
          "fullyQualifiedType" : "string",
          "columnName" : "COUNTRY",
          "isPrimaryKey" : false,
          "notNull" : false,
          "length" : 20,
          "precision" : 19,
          "generator" : "assigned",
          "isRelated" : false,
          "scale" : 0
        }, {
          "fieldName" : "city",
          "type" : "string",
          "fullyQualifiedType" : "string",
          "columnName" : "CITY",
          "isPrimaryKey" : false,
          "notNull" : false,
          "length" : 255,
          "precision" : 19,
          "generator" : "assigned",
          "isRelated" : false,
          "defaultValue" : "",
          "scale" : 0
        } ]
      }, {
        "fieldName" : "destinationsByFrom",
        "type" : "string",
        "fullyQualifiedType" : "string",
        "columnName" : "FROM",
        "isPrimaryKey" : false,
        "notNull" : false,
        "length" : 25,
        "precision" : 19,
        "generator" : "assigned",
        "isRelated" : true,
        "relatedTableName" : "DESTINATIONS",
        "relatedEntityName" : "Destinations",
        "relatedColumnName" : "from",
        "relatedFieldName" : "destinationsByFrom.airportCode",
        "isList" : false,
        "targetTable" : "DESTINATIONS",
        "scale" : 0,
        "columns" : [ {
          "fieldName" : "airportCode",
          "type" : "string",
          "fullyQualifiedType" : "string",
          "columnName" : "AIRPORT_CODE",
          "isPrimaryKey" : true,
          "notNull" : true,
          "length" : 25,
          "precision" : 19,
          "generator" : "assigned",
          "isRelated" : false,
          "scale" : 0
        }, {
          "fieldName" : "airportName",
          "type" : "string",
          "fullyQualifiedType" : "string",
          "columnName" : "AIRPORT_NAME",
          "isPrimaryKey" : false,
          "notNull" : false,
          "length" : 255,
          "precision" : 19,
          "generator" : "assigned",
          "isRelated" : false,
          "scale" : 0
        }, {
          "fieldName" : "country",
          "type" : "string",
          "fullyQualifiedType" : "string",
          "columnName" : "COUNTRY",
          "isPrimaryKey" : false,
          "notNull" : false,
          "length" : 20,
          "precision" : 19,
          "generator" : "assigned",
          "isRelated" : false,
          "scale" : 0
        }, {
          "fieldName" : "city",
          "type" : "string",
          "fullyQualifiedType" : "string",
          "columnName" : "CITY",
          "isPrimaryKey" : false,
          "notNull" : false,
          "length" : 255,
          "precision" : 19,
          "generator" : "assigned",
          "isRelated" : false,
          "defaultValue" : "",
          "scale" : 0
        } ]
      }, {
        "fieldName" : "employee",
        "type" : "integer",
        "fullyQualifiedType" : "integer",
        "columnName" : "EMP_ID",
        "isPrimaryKey" : false,
        "notNull" : false,
        "length" : 255,
        "precision" : 10,
        "generator" : "assigned",
        "isRelated" : true,
        "relatedTableName" : "EMPLOYEE",
        "relatedEntityName" : "Employee",
        "relatedColumnName" : "empId",
        "relatedFieldName" : "employee.empId",
        "isList" : false,
        "targetTable" : "EMPLOYEE",
        "scale" : 0,
        "columns" : [ {
          "fieldName" : "employeeByManagerId",
          "type" : "integer",
          "fullyQualifiedType" : "integer",
          "columnName" : "MANAGER_ID",
          "isPrimaryKey" : false,
          "notNull" : false,
          "length" : 255,
          "precision" : 10,
          "generator" : "assigned",
          "isRelated" : true,
          "relatedColumnName" : "managerId",
          "targetTable" : "EMPLOYEE",
          "scale" : 0
        }, {
          "fieldName" : "empId",
          "type" : "integer",
          "fullyQualifiedType" : "integer",
          "columnName" : "EMP_ID",
          "isPrimaryKey" : true,
          "notNull" : true,
          "length" : 255,
          "precision" : 10,
          "generator" : "identity",
          "isRelated" : false,
          "scale" : 0
        }, {
          "fieldName" : "password",
          "type" : "string",
          "fullyQualifiedType" : "string",
          "columnName" : "PASSWORD",
          "isPrimaryKey" : false,
          "notNull" : false,
          "length" : 255,
          "precision" : 19,
          "generator" : "assigned",
          "isRelated" : false,
          "scale" : 0
        }, {
          "fieldName" : "fullName",
          "type" : "string",
          "fullyQualifiedType" : "string",
          "columnName" : "FULL_NAME",
          "isPrimaryKey" : false,
          "notNull" : false,
          "length" : 255,
          "precision" : 19,
          "generator" : "assigned",
          "isRelated" : false,
          "scale" : 0
        }, {
          "fieldName" : "picUrl",
          "type" : "string",
          "fullyQualifiedType" : "string",
          "columnName" : "PIC_URL",
          "isPrimaryKey" : false,
          "notNull" : false,
          "length" : 255,
          "precision" : 19,
          "generator" : "assigned",
          "isRelated" : false,
          "scale" : 0
        }, {
          "fieldName" : "username",
          "type" : "string",
          "fullyQualifiedType" : "string",
          "columnName" : "USERNAME",
          "isPrimaryKey" : false,
          "notNull" : false,
          "length" : 255,
          "precision" : 19,
          "generator" : "assigned",
          "isRelated" : false,
          "scale" : 0
        } ]
      }, {
        "fieldName" : "requestId",
        "type" : "integer",
        "fullyQualifiedType" : "integer",
        "columnName" : "REQUEST_ID",
        "isPrimaryKey" : true,
        "notNull" : true,
        "length" : 255,
        "precision" : 10,
        "generator" : "identity",
        "isRelated" : false,
        "scale" : 0
      }, {
        "fieldName" : "travelType",
        "type" : "string",
        "fullyQualifiedType" : "string",
        "columnName" : "TRAVEL_TYPE",
        "isPrimaryKey" : false,
        "notNull" : false,
        "length" : 255,
        "precision" : 19,
        "generator" : "assigned",
        "isRelated" : false,
        "scale" : 0
      }, {
        "fieldName" : "class_",
        "type" : "string",
        "fullyQualifiedType" : "string",
        "columnName" : "CLASS",
        "isPrimaryKey" : false,
        "notNull" : false,
        "length" : 255,
        "precision" : 19,
        "generator" : "assigned",
        "isRelated" : false,
        "scale" : 0
      }, {
        "fieldName" : "stay",
        "type" : "string",
        "fullyQualifiedType" : "string",
        "columnName" : "STAY",
        "isPrimaryKey" : false,
        "notNull" : false,
        "length" : 255,
        "precision" : 19,
        "generator" : "assigned",
        "isRelated" : false,
        "scale" : 0
      }, {
        "fieldName" : "status",
        "type" : "string",
        "fullyQualifiedType" : "string",
        "columnName" : "STATUS",
        "isPrimaryKey" : false,
        "notNull" : false,
        "length" : 255,
        "precision" : 19,
        "generator" : "assigned",
        "isRelated" : false,
        "scale" : 0
      }, {
        "fieldName" : "deptDate",
        "type" : "date",
        "fullyQualifiedType" : "date",
        "columnName" : "DEPT_DATE",
        "isPrimaryKey" : false,
        "notNull" : false,
        "length" : 10,
        "precision" : 19,
        "generator" : "assigned",
        "isRelated" : false,
        "scale" : 0
      }, {
        "fieldName" : "returnDate",
        "type" : "date",
        "fullyQualifiedType" : "date",
        "columnName" : "RETURN_DATE",
        "isPrimaryKey" : false,
        "notNull" : false,
        "length" : 10,
        "precision" : 19,
        "generator" : "assigned",
        "isRelated" : false,
        "scale" : 0
      }, {
        "fieldName" : "visaType",
        "type" : "string",
        "fullyQualifiedType" : "string",
        "columnName" : "VISA_TYPE",
        "isPrimaryKey" : false,
        "notNull" : false,
        "length" : 255,
        "precision" : 19,
        "generator" : "assigned",
        "isRelated" : false,
        "scale" : 0
      }, {
        "fieldName" : "description",
        "type" : "string",
        "fullyQualifiedType" : "string",
        "columnName" : "DESCRIPTION",
        "isPrimaryKey" : false,
        "notNull" : false,
        "length" : 25,
        "precision" : 19,
        "generator" : "assigned",
        "isRelated" : false,
        "defaultValue" : "",
        "scale" : 0
      }, {
        "fieldName" : "createdDate",
        "type" : "date",
        "fullyQualifiedType" : "date",
        "columnName" : "CREATED_DATE",
        "isPrimaryKey" : false,
        "notNull" : false,
        "length" : 10,
        "precision" : 19,
        "generator" : "assigned",
        "isRelated" : false,
        "systemInserted" : true,
        "systemUpdated" : true,
        "scale" : 0
      }, {
        "fieldName" : "tripName",
        "type" : "string",
        "fullyQualifiedType" : "string",
        "columnName" : "TRIP_NAME",
        "isPrimaryKey" : false,
        "notNull" : false,
        "length" : 255,
        "precision" : 19,
        "generator" : "assigned",
        "isRelated" : false,
        "defaultValue" : "",
        "scale" : 0
      } ],
      "entityName" : "Requests",
      "fullyQualifiedName" : "com.travel_advisor.travel_advisor_db.Requests",
      "tableType" : "TABLE",
      "primaryFields" : [ "requestId" ]
    },
    "spinnerContext" : "page",
    "tableName" : "REQUESTS",
    "tableType" : "TABLE",
    "properties" : [ "destinationsByTo", "destinationsByFrom", "employee" ],
    "relatedTables" : [ {
      "columnName" : "destinationsByTo",
      "relationName" : "destinationsByTo",
      "type" : "Destinations",
      "watchOn" : "TRAVEL_ADVISOR_DBDestinationsData",
      "package" : "com.travel_advisor.travel_advisor_db.Requests"
    }, {
      "columnName" : "destinationsByFrom",
      "relationName" : "destinationsByFrom",
      "type" : "Destinations",
      "watchOn" : "TRAVEL_ADVISOR_DBDestinationsData",
      "package" : "com.travel_advisor.travel_advisor_db.Requests"
    }, {
      "columnName" : "employee",
      "relationName" : "employee",
      "type" : "Employee",
      "watchOn" : "TRAVEL_ADVISOR_DBEmployeeData",
      "package" : "com.travel_advisor.travel_advisor_db.Requests"
    } ],
    "filterFields" : { },
    "inputFields" : { },
    "package" : "com.travel_advisor.travel_advisor_db.Requests"
  },
  "errorNotify" : {
    "_id" : "wm-errorNotify-wm.NotificationVariable-1472133529968",
    "name" : "errorNotify",
    "owner" : "Page",
    "category" : "wm.NotificationVariable",
    "dataBinding" : [ {
      "target" : "content",
      "value" : "inline",
      "type" : "list"
    }, {
      "target" : "duration",
      "value" : "2000",
      "type" : "list"
    }, {
      "target" : "class",
      "value" : "Error",
      "type" : "list"
    }, {
      "target" : "toasterPosition",
      "value" : "bottom right",
      "type" : "list"
    } ],
    "operation" : "toast"
  }
}